0.000000000000000000e+00 6.399650087477839477e-01 3.600349912521749740e-01
1.399951000000680039e-04 6.372260134731340120e-01 3.577895780580759855e-01
1.599935999999640035e-04 6.368368414823110113e-01 3.574707825662120086e-01
1.799919000000650118e-04 6.364481944766869903e-01 3.571524781888140154e-01
1.999899999999279966e-04 6.360600713713440157e-01 3.568346638205279753e-01
3.999599999999770006e-04 6.322074182400979625e-01 3.536832297936650105e-01
5.999099999999259972e-04 6.284059832421720060e-01 3.505796048131880061e-01
7.998399999998849789e-04 6.246547286003819588e-01 3.475227360955600031e-01
9.197884000000659983e-04 6.224276409678579647e-01 3.457106313455869939e-01
1.998999999999969985e-03 6.031462221810619528e-01 3.301081534601489897e-01
5.990999999999970307e-03 5.418970619213250295e-01 2.816199490762970048e-01
9.974999999999959593e-03 4.928976241386269774e-01 2.441171009552010052e-01
1.990000000000000102e-02 4.042056154641360255e-01 1.797080431901899866e-01
3.960000000000010040e-02 3.004404934034590191e-01 1.117816352573999944e-01
5.909999999999999976e-02 2.402752942006869952e-01 7.740385408945239798e-02
7.839999999999999747e-02 2.002619901800609947e-01 5.717817385149760040e-02
9.750000000000000333e-02 1.713760860293299937e-01 4.410902460964220145e-02
1.164000000000000035e-01 1.493553960637800104e-01 3.509787853414549769e-02
1.350999999999999979e-01 1.319053527000340065e-01 2.858063529696620170e-02
1.535999999999999865e-01 1.176723750758039977e-01 2.369152964167879974e-02
1.718999999999999972e-01 1.058020004347350052e-01 1.991675097531549893e-02
1.900000000000000022e-01 9.572584067627740168e-02 1.693407241502289939e-02
2.079000000000000015e-01 8.704967891892509413e-02 1.453213860258159920e-02
2.255999999999999950e-01 7.949061037957390330e-02 1.256707022498869918e-02
2.431000000000000105e-01 7.283976696729249634e-02 1.093782565494180042e-02
2.604000000000000203e-01 6.693920034412660647e-02 9.571551522362739192e-03
2.775000000000000244e-01 6.166699399337940285e-02 8.414519960854800751e-03
2.943999999999999950e-01 5.692736020125820084e-02 7.426325977855980330e-03
3.110999999999999877e-01 5.264386601704190011e-02 6.576059475776619909e-03
3.276000000000000023e-01 4.875468488057790178e-02 5.839713232731430330e-03
3.438999999999999835e-01 4.520919572528699776e-02 5.198387244950779772e-03
3.599999999999999867e-01 4.196550022417699921e-02 4.637019511028590141e-03
4.375000000000000000e-01 2.921967884261790147e-02 2.674188265854990018e-03
5.100000000000000089e-01 2.047925996359969969e-02 1.567482029411929956e-03
5.775000000000000133e-01 1.429860672152320072e-02 9.172971261743770137e-04
6.400000000000000133e-01 9.866533217107200521e-03 5.289386094198510191e-04
6.975000000000000089e-01 6.680875008079830389e-03 2.970915281869580165e-04
7.500000000000000000e-01 4.406773037744180291e-03 1.606602280660200048e-04
7.974999999999999867e-01 2.807914443371760209e-03 8.255499500107530276e-05
8.399999999999999689e-01 1.710326107587620097e-03 3.966013008598009732e-05
8.774999999999999467e-01 9.820338780223290993e-04 1.743500947121000158e-05
9.100000000000000311e-01 5.210132636686010251e-04 6.803876085084669997e-06
9.375000000000000000e-01 2.477269939794029966e-04 2.250595195444630182e-06
9.599999999999999645e-01 1.003261724805140035e-04 5.845056836502929698e-07
9.775000000000000355e-01 3.146998598699709925e-05 1.033267810841090042e-07
9.899999999999999911e-01 6.178381809354699683e-06 9.029610910277279551e-09
9.975000000000000533e-01 3.847443389560819831e-07 1.407124917417270082e-10
9.983999999999999542e-01 1.575225894982719935e-07 3.687532549054429725e-11
1.000000000000000000e+00 0.000000000000000000e+00 0.000000000000000000e+00
